"product_id","product_name","product_SKU","product_description"
"101","Dell XPS 13","R082578","cool developer laptop."
"102","Apple iphone 7","R098882","Overpriced phone."
"108","Logitech mouse","R278634","Bluetooth mouse."
