"product_id","product_name","product_SKU","product_description", "product_category"
"222","Logitech USB Cable","R94836","For connecting stuff.", "3"
"239","MS Office 2019","R90983","Full Office suite.", "5"
"299","HP Deskjet 9000","R233634","Fancy printer.", "3"
